{
  "id": "test12",
  "description": [
    { "en_US", "Name12 - META PACKAGE", "Description 12" }
  ],
  "version": "0.0.1",
  "release": "0.0-beta",
  "license": "MIT",
  "category": "multimedia",
  "depends": [ "test1", "test2" ]
}
